{
  "name": "Relación entre compuestos orgánicos y el entorno",
  "image": "portada.jpg",
  "temas": [
    {
      "tema": "Introducción",
      "subtemas": [
        {
          "tema": "Legal",
          "url": "legal.html"
        },
        {
          "tema": "Presentación",
          "url": "presentacion.html"
        },       
        {
          "tema": "Unidad 1",
          "url": "index.html"
        },
        {
          "tema": "Transversalidad de los aprendizajes",
          "url": "aprendizajes.html"
        },
        {
          "tema": "Proyecto formativo",
          "url": "proyecto_formativo.html"
        },
        {
          "tema": "Explora tu mundo",
          "url": "explora_tu_mundo.html"
        },
        {
          "tema": "Evaluación diagnóstica",
          "url": "evaluacion_diagnostica.html"
        }
      ]
    },
    {
      "tema": "Análisis químico de reacciones",
      "subtemas": [
        {
          "tema": "Reacciones químicas",
          "url": "tema1.0.0.html"
        },
        {
          "tema": "A. Equilibrio dinámico",
          "url": "tema1.1.0.html"
        },
        {
          "tema": "Actividad 1",
          "url": "tema1.1.0A1.html"
        },
        {
          "tema": "Reacción directa",
          "url": "tema1.2.0.html"
        },
        {
          "tema": "Actividad 2",
          "url": "tema1.2.0A2.html"
        },
        {
          "tema": "B. Reacciones químicas importantes de nuestro entorno",
          "url": "tema1.3.0.html"
        },
        {
          "tema": "C. Análisis de algunas reacciones ambientales",
          "url": "tema1.4.0.html"
        },
        {
          "tema": "Actividad 3",
          "url": "tema1.4.0A3.html"
        },
        {
          "tema": "Actividad 4",
          "url": "tema1.4.0A4.html"
        },
        {
          "tema": "Evaluación formativa",
          "url": "tema1.4.0A4_evaluacion_formativa.html"
        },
        {
          "tema": "Actividad transversal",
          "url": "tema1.4.0A4_actividad_transversal.html"
        },
        {
          "tema": "Proyecto formativo",
          "url": "tema1.4.0A4_proyecto_formativo.html"
        },
        {
          "tema": "Actividad DHS",
          "url": "tema1.4.1_dhs.html"
        },
        {
          "tema": "Oriéntate",
          "url": "tema1.4.1_orientate.html"
        },
        {
          "tema": "Fomento a la lectura",
          "url": "tema1.4.2_lectura.html"
        }
      ]
    },
    {
      "tema": "Balance de ecuaciones",
      "subtemas": [
        {
          "tema": "A. Balanceo de ecuaciones",
          "url": "tema2.0.0.html"
        },
        {
          "tema": "B. Métodos",
          "url": "tema2.1.0.html"
        },
        {
          "tema": "Actividad 5",
          "url": "tema2.1.0A5.html"
        },
        {
          "tema": "Algebraico/aritmético",
          "url": "tema2.2.0.html"
        },
        {
          "tema": "Actividad 6",
          "url": "tema2.3.0A6.html"
        },
        {
          "tema": "Proyecto formativo",
          "url": "tema2.3.0A6_proyecto_formativo.html"
        },
        {
          "tema": "Vinculación de Competencias con Resultados de aprendizaje",
          "url": "tema2.3.0A6_vinculacion_de_competencias.html"
        },
        {
          "tema": "Evaluación sumativa",
          "url": "tema2.3.1_sumativa.html"
        },
        {
          "tema": "Prueba tipo PLANEA",
          "url": "tema2.3.2_prueba_planea.html"
        }
      ]
    }
  ]
}